Division,WeightClassKg,Place,Name,Team,BodyweightKg,Best3SquatKg,Best3BenchKg,Best3DeadliftKg,TotalKg,Equipment,Event,Sex,BirthDate
Girls,44.23,1,Angel Lawrence,Waco University,43.32,77.11,36.29,97.52,210.92,Unlimited,SBD,F,
Girls,44.23,2,Destiny Benavides,Waco University,43,70.31,47.63,90.72,208.65,Unlimited,SBD,F,
Girls,44.23,3,Valeria Perez #3,Waco University,43.59,77.11,29.48,68.04,174.63,Unlimited,SBD,F,
Girls,44.23,4,Bethani Gattis,Liberty Hill,43.64,47.63,20.41,45.36,113.4,Unlimited,SBD,F,
Girls,47.85,1,Alondra Rosario,Killeen Chaparral,47.17,131.54,70.31,131.54,333.39,Unlimited,SBD,F,
Girls,47.85,2,Kendall Criner,Joshua,46.18,122.47,63.5,102.06,288.03,Unlimited,SBD,F,
Girls,47.85,3,Zoey Smith,Elgin,45.59,117.93,54.43,111.13,283.5,Unlimited,SBD,F,
Girls,47.85,4,Yaretzy Morales,Joshua,45.72,97.52,45.36,97.52,240.4,Unlimited,SBD,F,
Girls,47.85,5,Meta Elliot,Elgin,46.9,92.99,45.36,90.72,229.06,Unlimited,SBD,F,
Girls,47.85,6,Isabel Garcia Sanchez,Killeen Chaparral,46.77,88.45,36.29,86.18,210.92,Unlimited,SBD,F,
Girls,47.85,7,Addie Crouse,Belton,46.54,68.04,38.56,77.11,183.7,Unlimited,SBD,F,
Girls,47.85,8,Yoselin Juarez Conde,Waco University,46.72,63.5,29.48,74.84,167.83,Unlimited,SBD,F,
Girls,51.94,1,Elizabeth Nunez,Elgin,51.8,174.63,90.72,136.08,401.43,Unlimited,SBD,F,
Girls,51.94,2,Jazmyne Brown,Joshua,51.17,127.01,47.63,113.4,288.03,Unlimited,SBD,F,
Girls,51.94,3,Addisyn Kelley,Burleson,50.26,97.52,61.23,106.59,265.35,Unlimited,SBD,F,
Girls,51.94,4,Kaylee Muennink,Liberty Hill,51.75,106.59,38.56,99.79,244.94,Unlimited,SBD,F,
Girls,51.94,5,Yarelin Tavera,Bastrop,50.94,92.99,45.36,102.06,240.4,Unlimited,SBD,F,
Girls,51.94,6,Nhi Nguyen,Pflugerville Connally,51.66,86.18,49.9,99.79,235.87,Unlimited,SBD,F,
Girls,51.94,7,Makayla Reyes,Belton,51.62,95.25,52.16,86.18,233.6,Unlimited,SBD,F,
Girls,51.94,8,Katelyn Anderson,Elgin,51.17,83.91,40.82,97.52,222.26,Unlimited,SBD,F,
Girls,51.94,9,Chloe Pedrotti,Waco University,48.81,83.91,38.56,97.52,219.99,Unlimited,SBD,F,
Girls,51.94,10,Lillian Day,Liberty Hill,51.07,79.38,34.02,81.65,195.04,Unlimited,SBD,F,
Girls,56.02,1,Maria Yanez,Elgin,54.57,192.78,83.91,138.35,415.04,Unlimited,SBD,F,
Girls,56.02,2,Deysey Sanchez,Elgin,55.75,113.4,83.91,124.74,322.05,Unlimited,SBD,F,
Girls,56.02,3,Avery Wiltzius,Killeen Chaparral,53.34,122.47,68.04,120.2,310.71,Unlimited,SBD,F,
Girls,56.02,4,Emma Klepac,Liberty Hill,53.52,113.4,68.04,111.13,292.57,Unlimited,SBD,F,
Girls,56.02,5,Briley Campbell,Belton,53.71,97.52,61.23,108.86,267.62,Unlimited,SBD,F,
Girls,56.02,6,Julie HE,Belton,54.88,99.79,49.9,111.13,260.82,Unlimited,SBD,F,
Girls,56.02,7,Kenzie Kimbrell,Burleson,54.88,106.59,54.43,95.25,256.28,Unlimited,SBD,F,
Girls,56.02,8,Cierra Taylor,Joshua,53.61,108.86,45.36,99.79,254.01,Unlimited,SBD,F,
Girls,56.02,9,Ciaran Messersmith,Belton,56.02,88.45,56.7,104.33,249.48,Unlimited,SBD,F,
Girls,56.02,10,Kylan Noblitt,Joshua,53.43,99.79,56.7,90.72,247.21,Unlimited,SBD,F,
Girls,56.02,11,Bailey Foster,Joshua,53.89,102.06,54.43,83.91,240.4,Unlimited,SBD,F,
Girls,56.02,DQ,Sophia Macias,Pflugerville,53.71,,,,,Unlimited,SBD,F,
Girls,60.1,1,Elise Eckford,Liberty Hill,59.01,154.22,99.79,156.49,410.5,Unlimited,SBD,F,
Girls,60.1,2,Gillian Eckert,Comal Pieper,59.28,108.86,70.31,136.08,315.25,Unlimited,SBD,F,
Girls,60.1,3,Ta Zhara Duffey,Waco University,59.06,124.74,45.36,136.08,306.17,Unlimited,SBD,F,
Girls,60.1,4,Kaleigh Daniels,Brenham,59.56,117.93,72.57,115.67,306.17,Unlimited,SBD,F,
Girls,60.1,5,Emily Stout,Waco University,56.97,113.4,56.7,124.74,294.84,Unlimited,SBD,F,
Girls,60.1,6,McKenzie Holms,Burleson,58.88,115.67,65.77,111.13,292.57,Unlimited,SBD,F,
Girls,60.1,7,Gianelie Hernandez,Killeen Chaparral,59.47,108.86,70.31,113.4,292.57,Unlimited,SBD,F,
Girls,60.1,8,Sofia Farelas,Pflugerville Connally,59.69,122.47,61.23,108.86,292.57,Unlimited,SBD,F,
Girls,60.1,9,Natalia Cruz-Gonzalez,Killeen Chaparral,59.6,97.52,68.04,106.59,272.16,Unlimited,SBD,F,
Girls,60.1,10,Bella Navejas,Elgin,59.92,97.52,49.9,117.93,265.35,Unlimited,SBD,F,
Girls,60.1,11,Kelis Smith,Belton,56.2,92.99,61.23,97.52,251.74,Unlimited,SBD,F,
Girls,60.1,DQ,Juliet Wallace,Burleson,59.42,142.88,77.11,,,Unlimited,SBD,F,
Girls,67.36,1,Jordin Seeger,Elgin,65.77,170.1,104.33,161.03,435.45,Unlimited,SBD,F,
Girls,67.36,2,Jacci Myers,Belton,66.13,161.03,90.72,151.95,403.7,Unlimited,SBD,F,
Girls,67.36,3,Camryn Maddox,Liberty Hill,67.13,163.29,81.65,154.22,399.16,Unlimited,SBD,F,
Girls,67.36,4,Danielle King,Elgin,65.05,138.35,106.59,142.88,387.82,Unlimited,SBD,F,
Girls,67.36,5,Bella Ragoonath,Burleson,64.77,136.08,70.31,124.74,331.12,Unlimited,SBD,F,
Girls,67.36,6,Bella Reyes,Belton,65.77,129.27,72.57,117.93,319.78,Unlimited,SBD,F,
Girls,67.36,7,Ariyana Alexander,Elgin,67.04,124.74,63.5,117.93,306.17,Unlimited,SBD,F,
Girls,67.36,8,Allie Vineyard,Liberty Hill,64.77,122.47,56.7,111.13,290.3,Unlimited,SBD,F,
Girls,67.36,9,Finley Joyner,Liberty Hill,65.05,111.13,65.77,113.4,290.3,Unlimited,SBD,F,
Girls,67.36,10,Anna Nelsen,Liberty Hill,61.87,113.4,70.31,104.33,288.03,Unlimited,SBD,F,
Girls,67.36,11,Taylor Collins,Belton,62.78,102.06,54.43,127.01,283.5,Unlimited,SBD,F,
Girls,67.36,DQ,Aliveyah Thomas,Waco University,64.14,,,,,Unlimited,SBD,F,
Girls,75.07,1,Morgan Collier,Joshua,72.39,142.88,65.77,165.56,374.21,Unlimited,SBD,F,
Girls,75.07,2,Alannah Mallard,Comal Pieper,71.94,142.88,77.11,142.88,362.87,Unlimited,SBD,F,
Girls,75.07,3,Shania Canty,Killeen Chaparral,69.81,124.74,70.31,156.49,351.53,Unlimited,SBD,F,
Girls,75.07,4,Mariely Leyva,Austin Navarro Early College,72.21,142.88,63.5,136.08,342.46,Unlimited,SBD,F,
Girls,75.07,5,Madison Wood,Burleson,73.3,124.74,70.31,115.67,310.71,Unlimited,SBD,F,
Girls,75.07,6,Adalyn Laging,Liberty Hill,74.84,115.67,68.04,120.2,303.91,Unlimited,SBD,F,
Girls,75.07,7,Victoria Morales,Lockhart,74.53,115.67,56.7,124.74,297.1,Unlimited,SBD,F,
Girls,75.07,8,Sierra Stilson,Joshua,74.84,108.86,56.7,99.79,265.35,Unlimited,SBD,F,
Girls,75.07,9,Audriana Garza,Joshua,73.48,95.25,47.63,117.93,260.82,Unlimited,SBD,F,
Girls,75.07,DQ,Julia Beck,Liberty Hill,67.68,,,,,Unlimited,SBD,F,
Girls,75.07,DQ,Riley Monk,Liberty Hill,71.85,120.2,65.77,,,Unlimited,SBD,F,
Girls,82.33,1,Amy Samaripa,Austin Navarro Early College,81.69,170.1,77.11,151.95,399.16,Unlimited,SBD,F,
Girls,82.33,2,Ashlynn Evans,Joshua,76.66,165.56,77.11,147.42,390.09,Unlimited,SBD,F,
Girls,82.33,3,Alexia Perez,Elgin,77.79,122.47,88.45,124.74,335.66,Unlimited,SBD,F,
Girls,82.33,4,Braelynn Serrato,Waco University,82.1,142.88,70.31,122.47,335.66,Unlimited,SBD,F,
Girls,82.33,5,Jessica Odu,Pflugerville,78.2,129.27,61.23,138.35,328.85,Unlimited,SBD,F,
Girls,82.33,6,Citlalli Jiminez,Elgin,79.92,129.27,86.18,113.4,328.85,Unlimited,SBD,F,
Girls,82.33,7,Gabriela Magana Avila,Belton,77.97,127.01,63.5,133.81,324.32,Unlimited,SBD,F,
Girls,82.33,8,Kiley Kyser,Elgin,79.29,106.59,72.57,117.93,297.1,Unlimited,SBD,F,
Girls,82.33,9,Gracie Anderle,Joshua,81.28,111.13,68.04,102.06,281.23,Unlimited,SBD,F,
Girls,82.33,DQ,Delani Barth,Burleson,77.56,,,,,Unlimited,SBD,F,
Girls,82.33,DQ,Anahi Perez,Belton,77.2,,,,,Unlimited,SBD,F,
Girls,90.04,1,Maddi Valles,Joshua,87.32,183.7,92.99,163.29,439.98,Unlimited,SBD,F,
Girls,90.04,2,Grace Hagen,Elgin,82.37,142.88,79.38,149.69,371.95,Unlimited,SBD,F,
Girls,90.04,3,Elise Rhodes,Elgin,89.95,115.67,72.57,142.88,331.12,Unlimited,SBD,F,
Girls,90.04,4,Tasja Latchison,Waco University,82.69,117.93,54.43,122.47,294.84,Unlimited,SBD,F,
Girls,90.04,5,Mayra Garcia,Elgin,86.55,104.33,88.45,99.79,292.57,Unlimited,SBD,F,
Girls,90.04,6,Madison Young #2,Bastrop,89.68,115.67,68.04,106.59,290.3,Unlimited,SBD,F,
Girls,90.04,7,Tiana Fagan,Pflugerville,83.37,117.93,63.5,106.59,288.03,Unlimited,SBD,F,
Girls,90.04,8,Aurelia Guerrero,Elgin,88.59,92.99,72.57,106.59,272.16,Unlimited,SBD,F,
Girls,90.04,9,Hagen Barrington,Burleson,87.27,102.06,54.43,90.72,247.21,Unlimited,SBD,F,
Girls,90.04,DQ,London Cosper,Lockhart,83.05,,,,,Unlimited,SBD,F,
Girls,90.04,DQ,Renee McKnight,Lockhart,85.41,,,,,Unlimited,SBD,F,
Girls,100.02,1,Ava Roberts,Pflugerville,91.81,172.37,81.65,181.44,435.45,Unlimited,SBD,F,
Girls,100.02,2,JaLiyah Price,Elgin,99.38,147.42,111.13,154.22,412.77,Unlimited,SBD,F,
Girls,100.02,3,Alyciana Rogers,Liberty Hill,92.71,145.15,72.57,133.81,351.53,Unlimited,SBD,F,
Girls,100.02,4,Nataly Aviles-Cordova,Pflugerville Connally,91.72,129.27,77.11,136.08,342.46,Unlimited,SBD,F,
Girls,100.02,5,Joanna Barar,Pflugerville Connally,96.71,120.2,79.38,99.79,299.37,Unlimited,SBD,F,
Girls,100.02,6,Peyton Crabill,Lockhart,97.16,122.47,54.43,122.47,299.37,Unlimited,SBD,F,
Girls,100.02,7,Kaia Somerhalder,Burleson,97.16,120.2,70.31,102.06,292.57,Unlimited,SBD,F,
Girls,100.02,8,Cassidy Wilson,Liberty Hill,94.35,104.33,52.16,104.33,260.82,Unlimited,SBD,F,
Girls,100.02,DQ,Angela Caldera,Bastrop,92.08,,,,,Unlimited,SBD,F,
Girls,110,1,Francis Lavea,Pflugerville,107.55,167.83,88.45,156.49,412.77,Unlimited,SBD,F,
Girls,110,2,Sophia Gonzales,Waco University,100.24,156.49,86.18,138.35,381.02,Unlimited,SBD,F,
Girls,110,3,Melissa Farmer,Belton,104.28,133.81,72.57,142.88,349.27,Unlimited,SBD,F,
Girls,110,4,A'Liyah Banks,Waco University,103.33,102.06,61.23,106.59,269.89,Unlimited,SBD,F,
Girls,110,5,Lillian Lee,Joshua,106.78,97.52,52.16,108.86,258.55,Unlimited,SBD,F,
Girls,110+,1,Nya Kirk Jones,Elgin,112.76,249.48,158.76,201.85,610.08,Unlimited,SBD,F,
Girls,110+,2,Leah Ovalle,Lockhart,133.36,183.7,83.91,156.49,424.11,Unlimited,SBD,F,
Girls,110+,3,Saniyah Felder,Burleson,110.13,183.7,79.38,142.88,405.97,Unlimited,SBD,F,
Girls,110+,4,Josephine Mitchell,Joshua,128.23,172.37,99.79,115.67,387.82,Unlimited,SBD,F,
Girls,110+,5,Danna Fuentes,Waco University,113.85,136.08,81.65,158.76,376.48,Unlimited,SBD,F,
Girls,110+,6,Nicole Parisi,Burleson,119.75,149.69,88.45,127.01,365.14,Unlimited,SBD,F,
Girls,110+,7,Aonjulie Johnson,Burleson,129.95,151.95,74.84,108.86,335.66,Unlimited,SBD,F,
Girls,110+,8,Regan McFarlin,Elgin,125.6,108.86,79.38,113.4,301.64,Unlimited,SBD,F,
Girls,110+,9,Khaliah Jeffrey,Brenham,140.16,115.67,83.91,102.06,301.64,Unlimited,SBD,F,
Girls,110+,10,Betsy Herrera,Bastrop,121.11,113.4,56.7,111.13,281.23,Unlimited,SBD,F,
Girls,110+,DQ,Ashley Farmer,Belton,123.38,124.74,,,,Unlimited,SBD,F,
